module gitlab.com/friendly-security/fenris

go 1.19

require (
	github.com/securego/gosec v0.0.0-20200401082031-e946c8c39989
	github.com/spf13/cobra v1.5.0
	github.com/spf13/viper v1.13.0
)

require (
	github.com/fsnotify/fsnotify v1.5.4 // indirect
	github.com/hashicorp/hcl v1.0.0 // indirect
	github.com/magiconair/properties v1.8.6 // indirect
	github.com/mitchellh/mapstructure v1.5.0 // indirect
	github.com/pelletier/go-toml v1.9.5 // indirect
	github.com/pelletier/go-toml/v2 v2.0.5 // indirect
	github.com/spf13/afero v1.8.2 // indirect
	github.com/spf13/cast v1.5.0 // indirect
	github.com/spf13/jwalterweatherman v1.1.0 // indirect
	github.com/subosito/gotenv v1.4.1 // indirect
	golang.org/x/text v0.3.7 // indirect
	gopkg.in/ini.v1 v1.67.0 // indirect
	gopkg.in/yaml.v2 v2.4.0 // indirect
	gopkg.in/yaml.v3 v3.0.1 // indirect
)

require (
	github.com/inconshreveable/mousetrap v1.0.1 // indirect
	github.com/sirupsen/logrus v1.9.0
	github.com/spf13/pflag v1.0.5 // indirect
	golang.org/x/mod v0.4.1 // indirect
	golang.org/x/sys v0.0.0-20220715151400-c0bba94af5f8 // indirect
	golang.org/x/tools v0.1.0 // indirect
	golang.org/x/xerrors v0.0.0-20220517211312-f3a8303e98df // indirect
)
